*******************************************************************************
 Revised: Sep 12, 1996              Mercury                             199 / 1

 GEOPHYSICAL DATA (updated 2008-Feb-07):
  Mean radius (km)      =  2440(+-1)     Density (g cm^-3)     =  5.427
  Mass (10^23 kg )      =     3.302      Flattening, f         =  
  Volume (x10^10 km^3)  =     6.085      Semi-major axis       = 
  Sidereal rot. period  =    58.6462 d   Rot. Rate (x10^5 s)   =  0.124001
  Mean solar day        =   175.9421 d   Polar gravity ms^-2   =
  Mom. of Inertia       =     0.33       Equ. gravity  ms^-2   =  3.701     
  Core radius (km)      = ~1600          Potential Love # k2   =

  GM (km^3 s^-2)        = 22032.09       Equatorial Radius, Re =    2440 km
  GM 1-sigma (km^3 s^-2)=   +-0.91       Mass ratio (sun/plnt) = 6023600
 
  Atmos. pressure (bar) =                Max. angular diam.    = 11.0"   
  Mean Temperature (K)  =                Visual mag. V(1,0)    = -0.42 
  Geometric albedo      =   0.106        Obliquity to orbit[1] = 2.11' +/- 0.1'  
  Sidereal orb. per.    =   0.2408467 y  Orbit vel.  km/s      = 47.8725
  Sidereal orb. per.    =  87.969257  d  Escape vel. km/s      =  4.435
  Hill's sphere rad. Rp =  94.4          Planetary Solar Const = 9936.9 (Wm^2)

[1] Margot et al., Science 316, 2007
*******************************************************************************
 
 
*******************************************************************************
Ephemeris / WWW_USER Tue Jul  2 08:04:23 2013 Pasadena, USA      / Horizons    
*******************************************************************************
Target body name: Mercury (199)                   {source: DE405}
Center body name: Sun (10)                        {source: DE405}
Center-site name: BODY CENTER
*******************************************************************************
Start time      : A.D. 2000-Jan-01 00:00:00.0000 CT 
Stop  time      : A.D. 2000-Feb-01 00:00:00.0000 CT 
Step-size       : 1440 minutes
*******************************************************************************
Center geodetic : 0.00000000,0.00000000,0.0000000 {E-lon(deg),Lat(deg),Alt(km)}
Center cylindric: 0.00000000,0.00000000,0.0000000 {E-lon(deg),Dxy(km),Dz(km)}
Center radii    : 696000.0 x 696000.0 x 696000.0 k{Equator, meridian, pole}    
Output units    : AU-D                                                         
Output format   : 03
Reference frame : ICRF/J2000.0                                                 
Output type     : GEOMETRIC cartesian states
Coordinate systm: Ecliptic and Mean Equinox of Reference Epoch                 
*******************************************************************************
JDCT 
   X     Y     Z
   VX    VY    VZ
   LT    RG    RR
*******************************************************************************
$$SOE
2451544.500000000 = A.D. 2000-Jan-01 00:00:00.0000 (CT)
  -1.407280773432263E-01 -4.439009590989200E-01 -2.334556214656219E-02
   2.116887134708586E-02 -7.097975162694618E-03 -2.522831610142376E-03
   2.692887484729829E-03  4.662590144046558E-01  4.946614074868511E-04
2451545.500000000 = A.D. 2000-Jan-02 00:00:00.0000 (CT)
  -1.193643132841327E-01 -4.503482894031600E-01 -2.583313074533029E-02
   2.154813008564600E-02 -5.794048585230677E-03 -2.451123983525787E-03
   2.694938618446968E-03  4.666141571986970E-01  2.155578085980491E-04
2451546.500000000 = A.D. 2000-Jan-03 00:00:00.0000 (CT)
  -9.765290108835054E-02 -4.554840359917858E-01 -2.824546480618188E-02
   2.186413197336948E-02 -4.475059440410157E-03 -2.372379824663639E-03
   2.695376936530616E-03  4.666900496222894E-01 -6.378711295985774E-05
2451547.500000000 = A.D. 2000-Jan-04 00:00:00.0000 (CT)
  -7.565723032176899E-02 -4.592938838919398E-01 -3.057557668695459E-02
   2.211658563160380E-02 -3.142496145110402E-03 -2.286693978802873E-03
   2.694201947830711E-03  4.664866066354356E-01 -3.430610098410681E-04
2451548.500000000 = A.D. 2000-Jan-05 00:00:00.0000 (CT)
  -5.344106063238127E-02 -4.617649900361105E-01 -3.281656501805780E-02
   2.230504142724309E-02 -1.797817902851464E-03 -2.194144379262950E-03
   2.691414966028286E-03  4.660040556949558E-01 -6.219504317635390E-04
2451549.500000000 = A.D. 2000-Jan-06 00:00:00.0000 (CT)
  -3.106868249859750E-02 -4.628859655189714E-01 -3.496159849864891E-02
   2.242888653246861E-02 -4.424776964995518E-04 -2.094793472273395E-03
   2.687019129971251E-03  4.652429402755185E-01 -9.001359808841252E-04
2451550.500000000 = A.D. 2000-Jan-07 00:00:00.0000 (CT)
  -8.605082779718732E-03 -4.626468810606793E-01 -3.700390114778480E-02
   2.248734025800690E-02  9.220542342290326E-04 -1.988689706519620E-03
   2.681019452203665E-03  4.642041282722238E-01 -1.177287381676518E-03
2451551.500000000 = A.D. 2000-Jan-08 00:00:00.0000 (CT)
   1.388388520505018E-02 -4.610392963357864E-01 -3.893673908950858E-02
   2.247944966836372E-02  2.294266079157713E-03 -1.875869116871666E-03
   2.673422896384878E-03  4.628888254053111E-01 -1.453058394993724E-03
2451552.500000000 = A.D. 2000-Jan-09 00:00:00.0000 (CT)
   3.633132737652994E-02 -4.580563141865595E-01 -4.075340898331994E-02
   2.240408553902892E-02  3.672578939432115E-03 -1.756357037905467E-03
   2.664238484704277E-03  4.612985938184490E-01 -1.727081504810045E-03
2451553.500000000 = A.D. 2000-Jan-10 00:00:00.0000 (CT)
   5.866913076994110E-02 -4.536926611178849E-01 -4.244722825046556E-02
   2.225993877286324E-02  5.055319715928764E-03 -1.630169989733436E-03
   2.653477436814726E-03  4.594353761343106E-01 -1.998962304582482E-03
2451554.500000000 = A.D. 2000-Jan-11 00:00:00.0000 (CT)
   8.082778212842820E-02 -4.479447958709717E-01 -4.401152729286098E-02
   2.204551745850857E-02  6.440691992621908E-03 -1.497317786555675E-03
   2.641153342234597E-03  4.573015253050632E-01 -2.268273508462461E-03
2451555.500000000 = A.D. 2000-Jan-12 00:00:00.0000 (CT)
   1.027361839807268E-01 -4.408110482969843E-01 -4.543964395630327E-02
   2.175914483074266E-02  7.826744478519084E-03 -1.357805927437788E-03
   2.627282368604957E-03  4.548998406709806E-01 -2.534548511006307E-03
2451556.500000000 = A.D. 2000-Jan-13 00:00:00.0000 (CT)
   1.243214692725321E-01 -4.322917912007112E-01 -4.672492055426680E-02
   2.139895848480775E-02  9.211336546698225E-03 -1.211638339323674E-03
   2.611883508632552E-03  4.522336107172961E-01 -2.797274418059409E-03
2451557.500000000 = A.D. 2000-Jan-14 00:00:00.0000 (CT)
   1.455088160269306E-01 -4.223896482977680E-01 -4.786070384449118E-02
   2.096291130782377E-02  1.059210038568205E-02 -1.058820554390756E-03
   2.594978868996110E-03  4.493066630967777E-01 -3.055884471693231E-03
2451558.500000000 = A.D. 2000-Jan-15 00:00:00.0000 (CT)
   1.662212640375517E-01 -4.111097419232809E-01 -4.884034843945305E-02
   2.044877472511117E-02  1.196639926017953E-02 -8.993634177070879E-04
   2.576594004933437E-03  4.461234225616890E-01 -3.309749794357728E-03
2451559.500000000 = A.D. 2000-Jan-16 00:00:00.0000 (CT)
   1.863795362750298E-01 -3.984599846382509E-01 -4.965722423546579E-02
   1.985414502272682E-02  1.333128136979619E-02 -7.332874368431735E-04
   2.556758304645078E-03  4.426889775212182E-01 -3.558170382926021E-03
2451560.500000000 = A.D. 2000-Jan-17 00:00:00.0000 (CT)
   2.059018685445306E-01 -3.844514193888862E-01 -5.030472856541165E-02
   1.917645370547039E-02  1.468342880235370E-02 -5.606279026039931E-04
   2.535505428023520E-03  4.390091560050862E-01 -3.800365293657965E-03
2451561.500000000 = A.D. 2000-Jan-18 00:00:00.0000 (CT)
   2.247038520069474E-01 -3.690986133632689E-01 -5.077630391872304E-02
   1.841298308807959E-02  1.601910111225594E-02 -3.814409291731189E-04
   2.512873804511497E-03  4.350906118650396E-01 -4.035461976429174E-03
2451562.500000000 = A.D. 2000-Jan-19 00:00:00.0000 (CT)
   2.426982945124708E-01 -3.524201111269918E-01 -5.106546223058078E-02
   1.756088860230634E-02  1.733407312662773E-02 -1.958105822119312E-04
   2.488907195060754E-03  4.309409220749941E-01 -4.262484743689204E-03
2451563.500000000 = A.D. 2000-Jan-20 00:00:00.0000 (CT)
   2.597951083418095E-01 -3.344389529581821E-01 -5.116581692110816E-02
   1.661722963934599E-02  1.862356670990964E-02 -3.857283915614525E-06
   2.463655323136816E-03  4.265686959861236E-01 -4.480342400216702E-03
2451564.500000000 = A.D. 2000-Jan-21 00:00:00.0000 (CT)
   2.759012339611710E-01 -3.151832644761058E-01 -5.107112406409606E-02
   1.557901113914077E-02  1.988217642401065E-02  1.942522968503222E-04
   2.437174579404996E-03  4.219836973394612E-01 -4.687815118569907E-03
2451565.500000000 = A.D. 2000-Jan-22 00:00:00.0000 (CT)
   2.909206118277663E-01 -2.946869235736022E-01 -5.077533428104027E-02
   1.444323858524641E-02  2.110378933570145E-02  3.982936458640167E-04
   2.409528804016051E-03  4.171969797144597E-01 -4.883540728157175E-03
2451566.500000000 = A.D. 2000-Jan-23 00:00:00.0000 (CT)
   3.047542171856502E-01 -2.729903101956012E-01 -5.027265718449554E-02
   1.320698955976967E-02  2.228149968354521E-02  6.079708649613710E-04
   2.380790149126381E-03  4.122210358697369E-01 -5.066000700410194E-03
2451567.500000000 = A.D. 2000-Jan-24 00:00:00.0000 (CT)
   3.173001762084925E-01 -2.501411434851354E-01 -4.955764042497113E-02
   1.186750554062007E-02  2.340751977033216E-02  8.229009671599718E-04
   2.351040022230810E-03  4.070699610760812E-01 -5.233506267355098E-03
2451568.500000000 = A.D. 2000-Jan-25 00:00:00.0000 (CT)
   3.284539857936083E-01 -2.261954090241186E-01 -4.862526561137314E-02
   1.042230815037285E-02  2.447308935006372E-02  1.042595804499397E-03
   2.320370107795102E-03  4.017596300066406E-01 -5.384185315845761E-03
2451569.500000000 = A.D. 2000-Jan-26 00:00:00.0000 (CT)
   3.381088637638933E-01 -2.012183760476874E-01 -4.747106355096609E-02
   8.869344536377345E-03  2.546838699533049E-02  1.266441483832757E-03
   2.288883460230665E-03  3.963078859796249E-01 -5.515970965322647E-03
2451570.500000000 = A.D. 2000-Jan-27 00:00:00.0000 (CT)
   3.461562610931269E-01 -1.752857002604107E-01 -4.609125135355715E-02
   7.207166886143616E-03  2.638244852944214E-02  1.493675226630026E-03
   2.256695655076312E-03  3.907347402792492E-01 -5.626593072901076E-03
2451571.500000000 = A.D. 2000-Jan-28 00:00:00.0000 (CT)
   3.524865728265081E-01 -1.484846018159864E-01 -4.448289391316151E-02
   5.435151126061066E-03  2.720309965080133E-02  1.723359791653374E-03
   2.223935976913007E-03  3.850625778367963E-01 -5.713574322740948E-03
2451572.500000000 = A.D. 2000-Jan-29 00:00:00.0000 (CT)
   3.569900892514029E-01 -1.209150996713438E-01 -4.264409204638029E-02
   3.553759423264085E-03  2.791691240597641E-02  1.954355825392217E-03
   2.190748611588909E-03  3.793163636579838E-01 -5.774233046481588E-03
2451573.500000000 = A.D. 2000-Jan-30 00:00:00.0000 (CT)
   3.595582329857997E-01 -9.269127240279590E-02 -4.057419903556201E-02
   1.564849947830465E-03  2.850919817708249E-02  2.185292857520669E-03
   2.157293796357047E-03  3.735238419631300E-01 -5.805695475935628E-03
2451574.500000000 = A.D. 2000-Jan-31 00:00:00.0000 (CT)
   3.600851300979468E-01 -6.394250123375186E-02 -3.827406637804088E-02
  -5.279648801323535E-04  2.896405324418726E-02  2.414540141015594E-03
   2.123748864241529E-03  3.677157170135569E-01 -5.804920713795549E-03
2451575.500000000 = A.D. 2000-Feb-01 00:00:00.0000 (CT)
   3.584695628835015E-01 -3.481463318785586E-02 -3.574631804102316E-02
  -2.718914138523399E-03  2.926447652853015E-02  2.640179166166498E-03
   2.090309098344435E-03  3.619258010302436E-01 -5.768742258069223E-03
$$EOE
*******************************************************************************
Coordinate system description:

  Ecliptic and Mean Equinox of Reference Epoch

    Reference epoch: J2000.0
    xy-plane: plane of the Earth's orbit at the reference epoch
    x-axis  : out along ascending node of instantaneous plane of the Earth's
              orbit and the Earth's mean equator at the reference epoch
    z-axis  : perpendicular to the xy-plane in the directional (+ or -) sense
              of Earth's north pole at the reference epoch.

Symbol meaning [1 AU=149597870.691 km, 1 day=86400.0 s]:

    JDCT     Epoch Julian Date, Coordinate Time
      X      x-component of position vector (AU)                               
      Y      y-component of position vector (AU)                               
      Z      z-component of position vector (AU)                               
      VX     x-component of velocity vector (AU/day)                           
      VY     y-component of velocity vector (AU/day)                           
      VZ     z-component of velocity vector (AU/day)                           
      LT     One-way down-leg Newtonian light-time (day)                       
      RG     Range; distance from coordinate center (AU)                       
      RR     Range-rate; radial velocity wrt coord. center (AU/day)            

Geometric states/elements have no aberration corrections applied.

 Computations by ...
     Solar System Dynamics Group, Horizons On-Line Ephemeris System
     4800 Oak Grove Drive, Jet Propulsion Laboratory
     Pasadena, CA  91109   USA
     Information: http://ssd.jpl.nasa.gov/
     Connect    : telnet://ssd.jpl.nasa.gov:6775  (via browser)
                  telnet ssd.jpl.nasa.gov 6775    (via command-line)
     Author     : Jon.Giorgini@jpl.nasa.gov
*******************************************************************************
