*******************************************************************************
 Revised: Oct 22, 2010                Uranus                                799
 
 PHYSICAL DATA (updated 2009-May-26):
  Mass (10^24 kg)       =    86.8103      Density (g/cm^3)       =  1.318
  Equat. radius (1 bar) = 25559+-4 km     Polar radius (km)      = 24973+-20
  Volumetric mean radius= 25362+-12 km    Flattening             =  0.02293

  Rotation period       = 17.24+-0.01 hr  Rot. rate(10^-4 rad/s) =  1.012   
  m = w^2a^3/GM         =  0.02954        Hydrostatic flat., fh  =  0.01987
  Inferred rot. period  = 17.14+-0.9 hr   ks = 3*J2/m            =  0.357
  Mom. of inert. I/MRo^2=  0.225          I/MRo^2 (upper bound)  =  0.232 
  Rocky core mass (Mc/M)=  0.0012         Y factor (He/H ratio)  =  0.262+-.048

  GM (km^3/s^2)         = 5,793,966       GM 1-sigma( km^3/s^2)  = +-23
  Equ. grav, ge (m/s^2) =  8.87           Pol. grav, gp (m/s^2)  =  9.19+-0.02

  Geometric albedo      =  0.51           Visual magnitude V(1,0)= -7.19
  Vis. mag. (opposition)= +5.52           Obliquity to orbit     = 97.86 deg
  Sidereal orbit period = 84.016846 yr    Sidereal orbit period  = 30687.153 d
  Mean daily motion     = 0.01176904 dg/d Mean orbit velocity    =  6.8352 km/s

  Atmos. temp. (1 bar)  =  76+-2 K        Heat flow/mass (x10^7) = 
  Planetary Solar Const =   3.71 W/m^2    Dipole tilt/offset     = 58.6dg/0.3Rp 
  Escape velocity (km/s)=  21.3           Mag.dip.mom(gauss-Rp^3)= 0.23
  Aroche(ice)/Rp        =  2.20           Hill's sphere rad., Rp = 2700
*******************************************************************************
 
 
*******************************************************************************
Ephemeris / WWW_USER Tue Jul  2 09:15:02 2013 Pasadena, USA      / Horizons    
*******************************************************************************
Target body name: Uranus (799)                    {source: URA095}
Center body name: Sun (10)                        {source: DE405}
Center-site name: BODY CENTER
*******************************************************************************
Start time      : A.D. 2000-Jan-01 00:00:00.0000 CT 
Stop  time      : A.D. 2000-Feb-01 00:00:00.0000 CT 
Step-size       : 1440 minutes
*******************************************************************************
Center geodetic : 0.00000000,0.00000000,0.0000000 {E-lon(deg),Lat(deg),Alt(km)}
Center cylindric: 0.00000000,0.00000000,0.0000000 {E-lon(deg),Dxy(km),Dz(km)}
Center radii    : 696000.0 x 696000.0 x 696000.0 k{Equator, meridian, pole}    
Output units    : AU-D                                                         
Output format   : 03
Reference frame : ICRF/J2000.0                                                 
Output type     : GEOMETRIC cartesian states
Coordinate systm: Ecliptic and Mean Equinox of Reference Epoch                 
*******************************************************************************
JDCT 
   X     Y     Z
   VX    VY    VZ
   LT    RG    RR
*******************************************************************************
$$SOE
2451544.500000000 = A.D. 2000-Jan-01 00:00:00.0000 (CT)
   1.443052046665937E+01 -1.373564864196039E+01 -2.381244929161860E-01
   2.678403105409980E-03  2.672444953582709E-03 -2.473205145549398E-05
   1.150712666115060E-01  1.992397219000744E+01  9.781559730240602E-05
2451545.500000000 = A.D. 2000-Jan-02 00:00:00.0000 (CT)
   1.443319859087866E+01 -1.373297594375952E+01 -2.381492273247740E-01
   2.677845511560329E-03  2.672951423273305E-03 -2.473654492069743E-05
   1.150718314460936E-01  1.992406998808463E+01  9.778069739856670E-05
2451546.500000000 = A.D. 2000-Jan-03 00:00:00.0000 (CT)
   1.443587615803906E+01 -1.373030273916362E+01 -2.381739655644187E-01
   2.677288987433800E-03  2.673457743643541E-03 -2.473971355685916E-05
   1.150723960815470E-01  1.992416775168281E+01  9.774663921956397E-05
2451547.500000000 = A.D. 2000-Jan-04 00:00:00.0000 (CT)
   1.443855316920971E+01 -1.372762902832202E+01 -2.381987063102629E-01
   2.676733531862682E-03  2.673963914636457E-03 -2.474155731827856E-05
   1.150729605227268E-01  1.992426548164356E+01  9.771342251466170E-05
2451548.500000000 = A.D. 2000-Jan-05 00:00:00.0000 (CT)
   1.444122962545857E+01 -1.372495481138416E+01 -2.382234482374133E-01
   2.676179143652235E-03  2.674469936166974E-03 -2.474207615717759E-05
   1.150735247744924E-01  1.992436317880825E+01  9.768104703173478E-05
2451549.500000000 = A.D. 2000-Jan-06 00:00:00.0000 (CT)
   1.444390552785240E+01 -1.372228008849955E+01 -2.382481900209200E-01
   2.675625821580777E-03  2.674975808118151E-03 -2.474127002398614E-05
   1.150740888417013E-01  1.992446084401795E+01  9.764951251986722E-05
2451550.500000000 = A.D. 2000-Jan-07 00:00:00.0000 (CT)
   1.444658087745670E+01 -1.371960485981784E+01 -2.382729303357862E-01
   2.675073564399876E-03  2.675481530337441E-03 -2.473913886763794E-05
   1.150746527292101E-01  1.992455847811352E+01  9.761881873203188E-05
2451551.500000000 = A.D. 2000-Jan-08 00:00:00.0000 (CT)
   1.444925567533574E+01 -1.371692912548885E+01 -2.382976678569639E-01
   2.674522370834723E-03  2.675987102632934E-03 -2.473568263588802E-05
   1.150752164418735E-01  1.992465608193558E+01  9.758896542789875E-05
2451552.500000000 = A.D. 2000-Jan-09 00:00:00.0000 (CT)
   1.445192992255247E+01 -1.371425288566262E+01 -2.383224012593487E-01
   2.673972239584817E-03  2.676492524769621E-03 -2.473090127564639E-05
   1.150757799845452E-01  1.992475365632447E+01  9.755995237685475E-05
2451553.500000000 = A.D. 2000-Jan-10 00:00:00.0000 (CT)
   1.445460362016857E+01 -1.371157614048946E+01 -2.383471292177878E-01
   2.673423169322402E-03  2.676997796463807E-03 -2.472479473331343E-05
   1.150763433620774E-01  1.992485120212034E+01  9.753177936066689E-05
2451554.500000000 = A.D. 2000-Jan-11 00:00:00.0000 (CT)
   1.445727676924433E+01 -1.370889889011995E+01 -2.383718504070708E-01
   2.672875158695925E-03  2.677502917380669E-03 -2.471736295521458E-05
   1.150769065793211E-01  1.992494872016313E+01  9.750444617761475E-05
2451555.500000000 = A.D. 2000-Jan-12 00:00:00.0000 (CT)
   1.445994937083871E+01 -1.370622113470509E+01 -2.383965635019352E-01
   2.672328206327540E-03  2.678007887127123E-03 -2.470860588800058E-05
   1.150774696411263E-01  1.992504621129258E+01  9.747795264553117E-05
2451556.500000000 = A.D. 2000-Jan-13 00:00:00.0000 (CT)
   1.446262142600927E+01 -1.370354287439624E+01 -2.384212671770662E-01
   2.671782310815738E-03  2.678512705247744E-03 -2.469852347917008E-05
   1.150780325523421E-01  1.992514367634825E+01  9.745229860645671E-05
2451557.500000000 = A.D. 2000-Jan-14 00:00:00.0000 (CT)
   1.446529293581216E+01 -1.370086410934531E+01 -2.384459601070965E-01
   2.671237470735950E-03  2.679017371218553E-03 -2.468711567763153E-05
   1.150785953178163E-01  1.992524111616958E+01  9.742748393128606E-05
2451558.500000000 = A.D. 2000-Jan-15 00:00:00.0000 (CT)
   1.446796390130207E+01 -1.369818483970472E+01 -2.384706409666074E-01
   2.670693684641750E-03  2.679521884440308E-03 -2.467438243435306E-05
   1.150791579423966E-01  1.992533853159587E+01  9.740350852519003E-05
2451559.500000000 = A.D. 2000-Jan-16 00:00:00.0000 (CT)
   1.447063432353228E+01 -1.369550506562757E+01 -2.384953084301347E-01
   2.670150951066733E-03  2.680026244231196E-03 -2.466032370312559E-05
   1.150797204309299E-01  1.992543592346637E+01  9.738037233392956E-05
2451560.500000000 = A.D. 2000-Jan-17 00:00:00.0000 (CT)
   1.447330420355455E+01 -1.369282478726766E+01 -2.385199611721706E-01
   2.669609268527080E-03  2.680530449818807E-03 -2.464493944145043E-05
   1.150802827882632E-01  1.992553329262028E+01  9.735807535116972E-05
2451561.500000000 = A.D. 2000-Jan-18 00:00:00.0000 (CT)
   1.447597354241918E+01 -1.369014400477962E+01 -2.385445978671622E-01
   2.669068635525007E-03  2.681034500331231E-03 -2.462822961157596E-05
   1.150808450192434E-01  1.992563063989682E+01  9.733661762701624E-05
2451562.500000000 = A.D. 2000-Jan-19 00:00:00.0000 (CT)
   1.447864234117494E+01 -1.368746271831901E+01 -2.385692171895271E-01
   2.668529050553263E-03  2.681538394787211E-03 -2.461019418171569E-05
   1.150814071287179E-01  1.992572796613532E+01  9.731599927798265E-05
2451563.500000000 = A.D. 2000-Jan-20 00:00:00.0000 (CT)
   1.448131058956567E+01 -1.368478092594233E+01 -2.385938210300490E-01
   2.667967905089069E-03  2.682046289250967E-03 -2.459757057367562E-05
   1.150819690659821E-01  1.992582526255651E+01  9.727701501755270E-05
2451564.500000000 = A.D. 2000-Jan-21 00:00:00.0000 (CT)
   1.448397827733328E+01 -1.368209862587937E+01 -2.386184124980920E-01
   2.667407804089959E-03  2.682553767138904E-03 -2.458544922044577E-05
   1.150825307810706E-01  1.992592252050919E+01  9.723906227572385E-05
2451565.500000000 = A.D. 2000-Jan-22 00:00:00.0000 (CT)
   1.448664540552150E+01 -1.367941581854737E+01 -2.386429920959069E-01
   2.666848746062880E-03  2.683060827072387E-03 -2.457383011772100E-05
   1.150830922799418E-01  1.992601974102500E+01  9.720214131639281E-05
2451566.500000000 = A.D. 2000-Jan-23 00:00:00.0000 (CT)
   1.448931197517257E+01 -1.367673250436505E+01 -2.386675603257473E-01
   2.666290729541195E-03  2.683567467514137E-03 -2.456271327449277E-05
   1.150836535685557E-01  1.992611692513588E+01  9.716625252938714E-05
2451567.500000000 = A.D. 2000-Jan-24 00:00:00.0000 (CT)
   1.449197798732728E+01 -1.367404868375274E+01 -2.386921176898828E-01
   2.665733753100763E-03  2.684073686754119E-03 -2.455209871568336E-05
   1.150842146528752E-01  1.992621407387429E+01  9.713139645176538E-05
2451568.500000000 = A.D. 2000-Jan-25 00:00:00.0000 (CT)
   1.449464344302501E+01 -1.367136435713257E+01 -2.387166646906201E-01
   2.665177815380304E-03  2.684579482895372E-03 -2.454198648517337E-05
   1.150847755388667E-01  1.992631118827326E+01  9.709757379227992E-05
2451569.500000000 = A.D. 2000-Jan-26 00:00:00.0000 (CT)
   1.449730834330385E+01 -1.366867952492868E+01 -2.387412018303212E-01
   2.664622915102330E-03  2.685084853841014E-03 -2.453237665093051E-05
   1.150853362325011E-01  1.992640826936664E+01  9.706478545547450E-05
2451570.500000000 = A.D. 2000-Jan-27 00:00:00.0000 (CT)
   1.449997268920065E+01 -1.366599418756739E+01 -2.387657296114175E-01
   2.664069051117536E-03  2.685589797269507E-03 -2.452326929985541E-05
   1.150858967397555E-01  1.992650531818932E+01  9.703303259079008E-05
2451571.500000000 = A.D. 2000-Jan-28 00:00:00.0000 (CT)
   1.450263648175118E+01 -1.366330834547748E+01 -2.387902485364569E-01
   2.663516222415639E-03  2.686094310651303E-03 -2.451466456110499E-05
   1.150864570666141E-01  1.992660233577744E+01  9.700231658923775E-05
2451572.500000000 = A.D. 2000-Jan-29 00:00:00.0000 (CT)
   1.450529972199030E+01 -1.366062199909036E+01 -2.388147591081287E-01
   2.662964428192771E-03  2.686598391215972E-03 -2.450656259229984E-05
   1.150870172190701E-01  1.992669932316868E+01  9.697263915475974E-05
2451573.500000000 = A.D. 2000-Jan-30 00:00:00.0000 (CT)
   1.450796241095220E+01 -1.365793514884033E+01 -2.388392618292964E-01
   2.662413667898953E-03  2.687102035957239E-03 -2.449896358917023E-05
   1.150875772031276E-01  1.992679628140262E+01  9.694400233542507E-05
2451574.500000000 = A.D. 2000-Jan-31 00:00:00.0000 (CT)
   1.451062454967066E+01 -1.365524779516480E+01 -2.388637572030418E-01
   2.661863941293799E-03  2.687605241646116E-03 -2.449186779323020E-05
   1.150881370248033E-01  1.992689321152103E+01  9.691640855509025E-05
2451575.500000000 = A.D. 2000-Feb-01 00:00:00.0000 (CT)
   1.451328613917939E+01 -1.365255993850453E+01 -2.388882457327161E-01
   2.661315248512336E-03  2.688108004853016E-03 -2.448527549725152E-05
   1.150886966901294E-01  1.992699011456835E+01  9.688986064631664E-05
$$EOE
*******************************************************************************
Coordinate system description:

  Ecliptic and Mean Equinox of Reference Epoch

    Reference epoch: J2000.0
    xy-plane: plane of the Earth's orbit at the reference epoch
    x-axis  : out along ascending node of instantaneous plane of the Earth's
              orbit and the Earth's mean equator at the reference epoch
    z-axis  : perpendicular to the xy-plane in the directional (+ or -) sense
              of Earth's north pole at the reference epoch.

Symbol meaning [1 AU=149597870.691 km, 1 day=86400.0 s]:

    JDCT     Epoch Julian Date, Coordinate Time
      X      x-component of position vector (AU)                               
      Y      y-component of position vector (AU)                               
      Z      z-component of position vector (AU)                               
      VX     x-component of velocity vector (AU/day)                           
      VY     y-component of velocity vector (AU/day)                           
      VZ     z-component of velocity vector (AU/day)                           
      LT     One-way down-leg Newtonian light-time (day)                       
      RG     Range; distance from coordinate center (AU)                       
      RR     Range-rate; radial velocity wrt coord. center (AU/day)            

Geometric states/elements have no aberration corrections applied.

 Computations by ...
     Solar System Dynamics Group, Horizons On-Line Ephemeris System
     4800 Oak Grove Drive, Jet Propulsion Laboratory
     Pasadena, CA  91109   USA
     Information: http://ssd.jpl.nasa.gov/
     Connect    : telnet://ssd.jpl.nasa.gov:6775  (via browser)
                  telnet ssd.jpl.nasa.gov 6775    (via command-line)
     Author     : Jon.Giorgini@jpl.nasa.gov
*******************************************************************************
